test/results/f1Code/pipelinedF1.vcd
$version Generated by VerilatedVcd $end
$date Mon Dec 12 14:33:46 2022 $end
$timescale 1ps $end

 $scope module TOP $end
  $var wire  1 r TRIGGERSEL $end
  $var wire 32 s a0 [31:0] $end
  $var wire  1 p clk $end
  $var wire  1 q rst $end
  $scope module top $end
   $var wire 32 w ADDRESS_WIDTH [31:0] $end
   $var wire  3 A ALUControlE [2:0] $end
   $var wire 32 O ALUResultM [31:0] $end
   $var wire 32 \ ALUResultW [31:0] $end
   $var wire  1 B ALUSrcE $end
   $var wire  3 ' ALUctrl [2:0] $end
   $var wire 32 t ALUop1 [31:0] $end
   $var wire 32 2 ALUop2 [31:0] $end
   $var wire 32 3 ALUout [31:0] $end
   $var wire  1 ( ALUsrc $end
   $var wire  1 1 Branch $end
   $var wire  1 ? BranchE $end
   $var wire  1 0 BranchMUX $end
   $var wire  1 @ BranchMUXE $end
   $var wire 32 x DATA_WIDTH [31:0] $end
   $var wire 32 H ImmExtE [31:0] $end
   $var wire 32 4 ImmOp [31:0] $end
   $var wire  3 ) ImmSrc [2:0] $end
   $var wire 32 8 InstrD [31:0] $end
   $var wire  1 , JUMPRT $end
   $var wire  1 C JUMPRTE $end
   $var wire  1 z JUMPRTM $end
   $var wire  1 W JUMPRTW $end
   $var wire  1 ` JUMPTRM $end
   $var wire  1 - Jump $end
   $var wire  1 > JumpE $end
   $var wire  1 N JumpM $end
   $var wire  1 X JumpW $end
   $var wire  1 - MUXJUMP $end
   $var wire  1 > MUXJUMPE $end
   $var wire  1 M MUXJUMPM $end
   $var wire 32 5 MUXJUMPOutput [31:0] $end
   $var wire  1 V MUXJUMPW $end
   $var wire  1 + MemWrite $end
   $var wire  1 = MemWriteE $end
   $var wire  1 L MemWriteM $end
   $var wire 32 m PC [31:0] $end
   $var wire 32 9 PCD [31:0] $end
   $var wire 32 F PCE [31:0] $end
   $var wire 32 ^ PCE2 [31:0] $end
   $var wire 32 v PCNext [31:0] $end
   $var wire 32 : PCPlus4D [31:0] $end
   $var wire 32 I PCPlus4E [31:0] $end
   $var wire 32 S PCPlus4M [31:0] $end
   $var wire 32 Z PCPlus4W [31:0] $end
   $var wire 32 R PCTargetM [31:0] $end
   $var wire 32 ] PCTargetW [31:0] $end
   $var wire  1 * PCsrc $end
   $var wire 32 D RD1E [31:0] $end
   $var wire 32 E RD2E [31:0] $end
   $var wire 32 G RdE [31:0] $end
   $var wire 32 Q RdM [31:0] $end
   $var wire 32 Y RdW [31:0] $end
   $var wire 32 6 ReadData [31:0] $end
   $var wire 32 [ ReadDataW [31:0] $end
   $var wire  1 & RegWrite $end
   $var wire  1 ; RegWriteE $end
   $var wire  1 J RegWriteM $end
   $var wire  1 T RegWriteW $end
   $var wire 32 7 Result [31:0] $end
   $var wire  1 / ResultSrc $end
   $var wire  1 < ResultSrcE $end
   $var wire  1 K ResultSrcM $end
   $var wire  1 U ResultSrcW $end
   $var wire 32 { ReturnMultiplexerOutput [31:0] $end
   $var wire  1 r TRIGGERSEL $end
   $var wire 32 y TriggerOutput [31:0] $end
   $var wire 32 P WriteDataM [31:0] $end
   $var wire  1 . Zero $end
   $var wire 32 s a0 [31:0] $end
   $var wire 32 _ branch_PC [31:0] $end
   $var wire  1 p clk $end
   $var wire 32 n inc_PC [31:0] $end
   $var wire 32 l instr [31:0] $end
   $var wire 16 % rd [15:0] $end
   $var wire 32 u regOp2 [31:0] $end
   $var wire 16 # rs1 [15:0] $end
   $var wire 16 $ rs2 [15:0] $end
   $var wire  1 q rst $end
   $scope module Fourflipflop_instance $end
    $var wire 32 x ADDRESS_WIDTH [31:0] $end
    $var wire 32 O ALUResultM [31:0] $end
    $var wire 32 \ ALUResultW [31:0] $end
    $var wire 32 x DATA_WIDTH [31:0] $end
    $var wire  1 z JUMPRTM $end
    $var wire  1 W JUMPRTW $end
    $var wire  1 N JumpM $end
    $var wire  1 X JumpW $end
    $var wire  1 M MUXJUMPM $end
    $var wire  1 V MUXJUMPW $end
    $var wire 32 S PCPlus4M [31:0] $end
    $var wire 32 Z PCPlus4W [31:0] $end
    $var wire 32 R PCTargetM [31:0] $end
    $var wire 32 ] PCTargetW [31:0] $end
    $var wire  5 a RdM [4:0] $end
    $var wire  5 b RdW [4:0] $end
    $var wire 32 6 ReadData [31:0] $end
    $var wire 32 [ ReadDataW [31:0] $end
    $var wire  1 J RegWriteM $end
    $var wire  1 T RegWriteW $end
    $var wire  1 K ResultSrcM $end
    $var wire  1 U ResultSrcW $end
    $var wire  1 p clk $end
   $upscope $end
   $scope module Oneflipflop_instance $end
    $var wire 32 x ADDRESS_WIDTH [31:0] $end
    $var wire 32 x DATA_WIDTH [31:0] $end
    $var wire 32 8 InstrD [31:0] $end
    $var wire 32 m PC [31:0] $end
    $var wire 32 9 PCD [31:0] $end
    $var wire 32 : PCPlus4D [31:0] $end
    $var wire 32 l RD [31:0] $end
    $var wire  1 p clk $end
    $var wire 32 n inc_PC [31:0] $end
   $upscope $end
   $scope module ProgramCounter $end
    $var wire 32 m PC [31:0] $end
    $var wire 32 v PCNext [31:0] $end
    $var wire 32 x WIDTH [31:0] $end
    $var wire  1 p clk $end
    $var wire  1 q rst $end
   $upscope $end
   $scope module Threeflipflop_instance $end
    $var wire 32 x ADDRESS_WIDTH [31:0] $end
    $var wire 32 3 ALUOut [31:0] $end
    $var wire 32 O ALUResultM [31:0] $end
    $var wire 32 x DATA_WIDTH [31:0] $end
    $var wire  1 C JUMPRTE $end
    $var wire  1 ` JUMPRTM $end
    $var wire  1 > JumpE $end
    $var wire  1 N JumpM $end
    $var wire  1 > MUXJUMPE $end
    $var wire  1 M MUXJUMPM $end
    $var wire  1 = MemWriteE $end
    $var wire  1 L MemWriteM $end
    $var wire 32 I PCPlus4E [31:0] $end
    $var wire 32 S PCPlus4M [31:0] $end
    $var wire 32 _ PCTargetE [31:0] $end
    $var wire 32 R PCTargetM [31:0] $end
    $var wire  5 c RdE [4:0] $end
    $var wire  5 a RdM [4:0] $end
    $var wire  1 ; RegWriteE $end
    $var wire  1 J RegWriteM $end
    $var wire  1 < ResultSrcE $end
    $var wire  1 K ResultSrcM $end
    $var wire 32 P WriteDataM [31:0] $end
    $var wire  1 p clk $end
    $var wire 32 E regOp2 [31:0] $end
   $upscope $end
   $scope module Twoflipflop_instance $end
    $var wire 32 x ADDRESS_WIDTH [31:0] $end
    $var wire  3 ' ALUControlD [2:0] $end
    $var wire  3 A ALUControlE [2:0] $end
    $var wire  1 ( ALUSrcD $end
    $var wire  1 B ALUSrcE $end
    $var wire  1 1 BranchD $end
    $var wire  1 ? BranchE $end
    $var wire  1 0 BranchMUXD $end
    $var wire  1 @ BranchMUXE $end
    $var wire 32 x DATA_WIDTH [31:0] $end
    $var wire 32 4 ImmExtD [31:0] $end
    $var wire 32 H ImmExtE [31:0] $end
    $var wire  1 , JUMPRTD $end
    $var wire  1 C JUMPRTE $end
    $var wire  1 - JumpD $end
    $var wire  1 > JumpE $end
    $var wire  1 - MUXJUMPD $end
    $var wire  1 > MUXJUMPE $end
    $var wire  1 + MemWriteD $end
    $var wire  1 = MemWriteE $end
    $var wire 32 9 PCD [31:0] $end
    $var wire 32 F PCE [31:0] $end
    $var wire 32 : PCPlus4D [31:0] $end
    $var wire 32 I PCPlus4E [31:0] $end
    $var wire 32 t RD1 [31:0] $end
    $var wire 32 D RD1E [31:0] $end
    $var wire 32 u RD2 [31:0] $end
    $var wire 32 E RD2E [31:0] $end
    $var wire  5 d RdD [4:0] $end
    $var wire  5 c RdE [4:0] $end
    $var wire  1 & RegWriteD $end
    $var wire  1 ; RegWriteE $end
    $var wire  1 / ResultSrcD $end
    $var wire  1 < ResultSrcE $end
    $var wire  1 p clk $end
   $upscope $end
   $scope module alu_instance $end
    $var wire 32 3 ALUResult [31:0] $end
    $var wire  3 A ALUctrl [2:0] $end
    $var wire 32 D ALUop1 [31:0] $end
    $var wire 32 2 ALUop2 [31:0] $end
    $var wire 32 x DATA_WIDTH [31:0] $end
    $var wire  1 . Zero $end
   $upscope $end
   $scope module control_unit_instance $end
    $var wire  2 h ALUOp [1:0] $end
    $var wire  3 ' ALUctrl [2:0] $end
    $var wire  1 ( ALUsrc $end
    $var wire  1 1 Branch $end
    $var wire  1 0 BranchMUX $end
    $var wire  3 ) ImmSrc [2:0] $end
    $var wire  1 , JUMPRT $end
    $var wire  1 - Jump $end
    $var wire  1 - MUXJUMP $end
    $var wire  1 + MemWrite $end
    $var wire  1 & RegWrite $end
    $var wire  1 / ResultSrc $end
    $var wire  3 f funct3 [2:0] $end
    $var wire  7 g funct7 [6:0] $end
    $var wire 32 8 instr [31:0] $end
    $var wire  7 e op [6:0] $end
    $var wire  2 i opfunct7 [1:0] $end
   $upscope $end
   $scope module data_memory_instance $end
    $var wire 32 O A [31:0] $end
    $var wire 32 x ADDRESS_WIDTH [31:0] $end
    $var wire 32 x DATA_WIDTH [31:0] $end
    $var wire 32 6 RD [31:0] $end
    $var wire 32 P WD [31:0] $end
    $var wire  1 L WE $end
    $var wire  1 p clk $end
   $upscope $end
   $scope module instr_mem_instance $end
    $var wire 32 m A [31:0] $end
    $var wire 32 x ADDRESS_WIDTH [31:0] $end
    $var wire 32 | DATA_WIDTH [31:0] $end
    $var wire 32 x OUT_WIDTH [31:0] $end
    $var wire 32 l RD [31:0] $end
    $var wire 12 o addr [11:0] $end
   $upscope $end
   $scope module reg_file_instance $end
    $var wire 16 # AD1 [15:0] $end
    $var wire 16 $ AD2 [15:0] $end
    $var wire 16 j AD3 [15:0] $end
    $var wire 32 w ADDRESS_WIDTH [31:0] $end
    $var wire 32 x DATA_WIDTH [31:0] $end
    $var wire 32 t RD1 [31:0] $end
    $var wire 32 u RD2 [31:0] $end
    $var wire 32 5 WD3 [31:0] $end
    $var wire  1 T WE3 $end
    $var wire 32 s a0 [31:0] $end
    $var wire  1 p clk $end
   $upscope $end
   $scope module sign_extend_instance $end
    $var wire 32 4 ImmExt [31:0] $end
    $var wire  3 ) ImmSrc [2:0] $end
    $var wire  1 k dummy_wire $end
    $var wire 32 8 instr [31:0] $end
   $upscope $end
  $upscope $end
 $upscope $end
$enddefinitions $end


#0
b0000000000000000 #
b0000000000000000 $
b0000000000000000 %
0&
b000 '
0(
b000 )
0*
0+
0,
0-
0.
0/
00
01
b00000000000000000000000000000000 2
b00000000000000000000000000000000 3
b00000000000000000000000000000000 4
b00000000000000000000000000000000 5
b00000000000000000000000000000000 6
b00000000000000000000000000000000 7
b00000000000000000000000000000000 8
b00000000000000000000000000000000 9
b00000000000000000000000000000000 :
0;
0<
0=
0>
0?
0@
b000 A
0B
0C
b00000000000000000000000000000000 D
b00000000000000000000000000000000 E
b00000000000000000000000000000000 F
b00000000000000000000000000000000 G
b00000000000000000000000000000000 H
b00000000000000000000000000000000 I
0J
0K
0L
0M
0N
b00000000000000000000000000000000 O
b00000000000000000000000000000000 P
b00000000000000000000000000000000 Q
b00000000000000000000000000000000 R
b00000000000000000000000000000000 S
0T
0U
0V
0W
0X
b00000000000000000000000000000000 Y
b00000000000000000000000000000000 Z
b00000000000000000000000000000000 [
b00000000000000000000000000000000 \
b00000000000000000000000000000000 ]
b00000000000000000000000000000000 ^
b00000000000000000000000000000000 _
0`
b00000 a
b00000 b
b00000 c
b00000 d
b0000000 e
b000 f
b0000000 g
b00 h
b00 i
b0000000000000000 j
0k
b00000000000000000000000000000000 l
b00000000000000000000000000000000 m
b00000000000000000000000000000100 n
b000000000000 o
1p
1q
1r
b00000000000000000000000000000000 s
b00000000000000000000000000000000 t
b00000000000000000000000000000000 u
b00000000000000000000000000000100 v
b00000000000000000000000000010000 w
b00000000000000000000000000100000 x
b00000000000000000000000000000000 y
0z
b00000000000000000000000000000000 {
b00000000000000000000000000001000 |
#1
1.
b00000000001000000000001100010011 l
0p
#2
b0000000000000010 $
b0000000000000110 %
1&
1(
b00000000000000000000000000000010 4
b00000000001000000000001100010011 8
b00000000000000000000000000000100 :
b00110 d
b0010011 e
b10 h
b10111111110000000000000000000000 m
b10111111110000000000000000000100 n
1p
0q
b10111111110000000000000000000100 v
#3
0p
#4
0.
b00000000000000000000000000000010 2
b00000000000000000000000000000010 3
b10111111110000000000000000000000 9
b10111111110000000000000000000100 :
1;
1B
b00000000000000000000000000000110 G
b00000000000000000000000000000010 H
b00000000000000000000000000000100 I
b00000000000000000000000000000010 _
b00110 c
b00000000000000000000000000010011 l
b10111111110000000000000000000100 m
b10111111110000000000000000001000 n
b000000000100 o
1p
b10111111110000000000000000001000 v
#5
0p
#6
b0000000000000000 $
b0000000000000000 %
b00000000000000000000000000000000 4
b00000000000000000000000000010011 8
b10111111110000000000000000000100 9
b10111111110000000000000000001000 :
b10111111110000000000000000000000 F
b10111111110000000000000000000100 I
1J
b00000000000000000000000000000010 O
b00000000000000000000000000000110 Q
b00000000000000000000000000000010 R
b00000000000000000000000000000100 S
b10111111110000000000000000000000 ^
b10111111110000000000000000000010 _
b00110 a
b00000 d
b10111111110000000000000000001000 m
b10111111110000000000000000001100 n
b000000001000 o
1p
b10111111110000000000000000001100 v
#7
0p
#8
1.
b00000000000000000000000000000000 2
b00000000000000000000000000000000 3
b00000000000000000000000000000010 5
b00000000000000000000000000000010 7
b10111111110000000000000000001000 9
b10111111110000000000000000001100 :
b10111111110000000000000000000100 F
b00000000000000000000000000000000 G
b00000000000000000000000000000000 H
b10111111110000000000000000001000 I
b10111111110000000000000000000010 R
b10111111110000000000000000000100 S
1T
b00000000000000000000000000000110 Y
b00000000000000000000000000000100 Z
b00000000000000000000000000000010 \
b00000000000000000000000000000010 ]
b10111111110000000000000000000100 ^
b10111111110000000000000000000100 _
b00110 b
b00000 c
b0000000000000110 j
b10111111110000000000000000001100 m
b10111111110000000000000000010000 n
b000000001100 o
1p
b10111111110000000000000000010000 v
#9
0p
#10
b10111111110000000000000000001100 9
b10111111110000000000000000010000 :
b10111111110000000000000000001000 F
b10111111110000000000000000001100 I
b00000000000000000000000000000000 O
b00000000000000000000000000000000 Q
b10111111110000000000000000000100 R
b10111111110000000000000000001000 S
b10111111110000000000000000000100 Z
b10111111110000000000000000000010 ]
b10111111110000000000000000001000 ^
b10111111110000000000000000001000 _
b00000 a
b10111111110000000000000000010000 m
b10111111110000000000000000010100 n
b000000010000 o
1p
b10111111110000000000000000010100 v
#11
0p
#12
b00000000000000000000000000000000 5
b00000000000000000000000000000000 7
b10111111110000000000000000010000 9
b10111111110000000000000000010100 :
b10111111110000000000000000001100 F
b10111111110000000000000000010000 I
b10111111110000000000000000001000 R
b10111111110000000000000000001100 S
b00000000000000000000000000000000 Y
b10111111110000000000000000001000 Z
b00000000000000000000000000000000 \
b10111111110000000000000000000100 ]
b10111111110000000000000000001100 ^
b10111111110000000000000000001100 _
b00000 b
b0000000000000000 j
b10111111110000000000000000010100 m
b10111111110000000000000000011000 n
b000000010100 o
1p
b10111111110000000000000000011000 v
#13
0p
#14
b10111111110000000000000000010100 9
b10111111110000000000000000011000 :
b10111111110000000000000000010000 F
b10111111110000000000000000010100 I
b10111111110000000000000000001100 R
b10111111110000000000000000010000 S
b10111111110000000000000000001100 Z
b10111111110000000000000000001000 ]
b10111111110000000000000000010000 ^
b10111111110000000000000000010000 _
b00000000000100000000010100010011 l
b10111111110000000000000000011000 m
b10111111110000000000000000011100 n
b000000011000 o
1p
b10111111110000000000000000011100 v
#15
0p
#16
b0000000000000001 $
b0000000000001010 %
b00000000000000000000000000000001 4
b00000000000100000000010100010011 8
b10111111110000000000000000011000 9
b10111111110000000000000000011100 :
b10111111110000000000000000010100 F
b10111111110000000000000000011000 I
b10111111110000000000000000010000 R
b10111111110000000000000000010100 S
b10111111110000000000000000010000 Z
b10111111110000000000000000001100 ]
b10111111110000000000000000010100 ^
b10111111110000000000000000010100 _
b01010 d
b00000000000000000000000000010011 l
b10111111110000000000000000011100 m
b10111111110000000000000000100000 n
b000000011100 o
1p
b10111111110000000000000000100000 v
#17
0p
#18
b0000000000000000 $
b0000000000000000 %
0.
b00000000000000000000000000000001 2
b00000000000000000000000000000001 3
b00000000000000000000000000000000 4
b00000000000000000000000000010011 8
b10111111110000000000000000011100 9
b10111111110000000000000000100000 :
b10111111110000000000000000011000 F
b00000000000000000000000000001010 G
b00000000000000000000000000000001 H
b10111111110000000000000000011100 I
b10111111110000000000000000010100 R
b10111111110000000000000000011000 S
b10111111110000000000000000010100 Z
b10111111110000000000000000010000 ]
b10111111110000000000000000011000 ^
b10111111110000000000000000011001 _
b01010 c
b00000 d
b10111111110000000000000000100000 m
b10111111110000000000000000100100 n
b000000100000 o
1p
b10111111110000000000000000100100 v
#19
0p
#20
1.
b00000000000000000000000000000000 2
b00000000000000000000000000000000 3
b10111111110000000000000000100000 9
b10111111110000000000000000100100 :
b10111111110000000000000000011100 F
b00000000000000000000000000000000 G
b00000000000000000000000000000000 H
b10111111110000000000000000100000 I
b00000000000000000000000000000001 O
b00000000000000000000000000001010 Q
b10111111110000000000000000011001 R
b10111111110000000000000000011100 S
b10111111110000000000000000011000 Z
b10111111110000000000000000010100 ]
b10111111110000000000000000011100 ^
b10111111110000000000000000011100 _
b01010 a
b00000 c
b10111111110000000000000000100100 m
b10111111110000000000000000101000 n
b000000100100 o
1p
b10111111110000000000000000101000 v
#21
0p
#22
b00000000000000000000000000000001 5
b00000000000000000000000000000001 7
b10111111110000000000000000100100 9
b10111111110000000000000000101000 :
b10111111110000000000000000100000 F
b10111111110000000000000000100100 I
b00000000000000000000000000000000 O
b00000000000000000000000000000000 Q
b10111111110000000000000000011100 R
b10111111110000000000000000100000 S
b00000000000000000000000000001010 Y
b10111111110000000000000000011100 Z
b00000000000000000000000000000001 \
b10111111110000000000000000011001 ]
b10111111110000000000000000100000 ^
b10111111110000000000000000100000 _
b00000 a
b01010 b
b0000000000001010 j
b10111111110000000000000000101000 m
b10111111110000000000000000101100 n
b000000101000 o
1p
b10111111110000000000000000101100 v
#23
0p
b00000000000000000000000000000001 s
#24
b00000000000000000000000000000000 5
b00000000000000000000000000000000 7
b10111111110000000000000000101000 9
b10111111110000000000000000101100 :
b10111111110000000000000000100100 F
b10111111110000000000000000101000 I
b10111111110000000000000000100000 R
b10111111110000000000000000100100 S
b00000000000000000000000000000000 Y
b10111111110000000000000000100000 Z
b00000000000000000000000000000000 \
b10111111110000000000000000011100 ]
b10111111110000000000000000100100 ^
b10111111110000000000000000100100 _
b00000 b
b0000000000000000 j
b10111111110000000000000000101100 m
b10111111110000000000000000110000 n
b000000101100 o
1p
b10111111110000000000000000110000 v
#25
0p
#26
b10111111110000000000000000101100 9
b10111111110000000000000000110000 :
b10111111110000000000000000101000 F
b10111111110000000000000000101100 I
b10111111110000000000000000100100 R
b10111111110000000000000000101000 S
b10111111110000000000000000100100 Z
b10111111110000000000000000100000 ]
b10111111110000000000000000101000 ^
b10111111110000000000000000101000 _
b00011001100000000000000011101111 l
b10111111110000000000000000110000 m
b10111111110000000000000000110100 n
b000000110000 o
1p
b10111111110000000000000000110100 v
#27
0p
#28
b0000000000011000 $
b0000000000000001 %
0(
b011 )
1-
b00000000000000000000000110011000 4
b00011001100000000000000011101111 8
b10111111110000000000000000110000 9
b10111111110000000000000000110100 :
b10111111110000000000000000101100 F
b10111111110000000000000000110000 I
b10111111110000000000000000101000 R
b10111111110000000000000000101100 S
b10111111110000000000000000101000 Z
b10111111110000000000000000100100 ]
b10111111110000000000000000101100 ^
b10111111110000000000000000101100 _
b00001 d
b1101111 e
b0001100 g
b00 h
b10 i
b00000000000000000000000000010011 l
b10111111110000000000000000110100 m
b10111111110000000000000000111000 n
b000000110100 o
1p
b10111111110000000000000000111000 v
#29
0p
#30
b0000000000000000 $
b0000000000000000 %
1(
b000 )
1*
0-
b00000000000000000000000000000000 4
b00000000000000000000000000010011 8
b10111111110000000000000000110100 9
b10111111110000000000000000111000 :
1>
0B
b10111111110000000000000000110000 F
b00000000000000000000000000000001 G
b00000000000000000000000110011000 H
b10111111110000000000000000110100 I
b10111111110000000000000000101100 R
b10111111110000000000000000110000 S
b10111111110000000000000000101100 Z
b10111111110000000000000000101000 ]
b10111111110000000000000000110000 ^
b10111111110000000000000111001000 _
b00001 c
b00000 d
b0010011 e
b0000000 g
b10 h
b00 i
b10111111110000000000000000111000 m
b10111111110000000000000000111100 n
b000000111000 o
1p
b10111111110000000000000111001000 v
#31
0p
#32
0*
b10111111110000000000000000111000 9
b10111111110000000000000000111100 :
0>
1B
b10111111110000000000000000110100 F
b00000000000000000000000000000000 G
b00000000000000000000000000000000 H
b10111111110000000000000000111000 I
1M
1N
b00000000000000000000000000000001 Q
b10111111110000000000000111001000 R
b10111111110000000000000000110100 S
b10111111110000000000000000110000 Z
b10111111110000000000000000101100 ]
b10111111110000000000000000110100 ^
b10111111110000000000000000110100 _
b00001 a
b00000 c
b00000000000101011000010110010011 l
b10111111110000000000000111001000 m
b10111111110000000000000111001100 n
b000111001000 o
1p
b10111111110000000000000111001100 v
#33
0p
#34
b0000000000001011 #
b0000000000000001 $
b0000000000001011 %
b00000000000000000000000000000001 4
b10111111110000000000000000110100 5
b00000000000101011000010110010011 8
b10111111110000000000000111001000 9
b10111111110000000000000111001100 :
b10111111110000000000000000111000 F
b10111111110000000000000000111100 I
0M
0N
b00000000000000000000000000000000 Q
b10111111110000000000000000110100 R
b10111111110000000000000000111000 S
1V
1X
b00000000000000000000000000000001 Y
b10111111110000000000000000110100 Z
b10111111110000000000000111001000 ]
b10111111110000000000000000111000 ^
b10111111110000000000000000111000 _
b00000 a
b00001 b
b01011 d
b0000000000000001 j
b00000000000000000000000000010011 l
b10111111110000000000000111001100 m
b10111111110000000000000111010000 n
b000111001100 o
1p
b10111111110000000000000111010000 v
#35
0p
b10111111110000000000000000110100 u
#36
b0000000000000000 #
b0000000000000000 $
b0000000000000000 %
0.
b00000000000000000000000000000001 2
b00000000000000000000000000000001 3
b00000000000000000000000000000000 4
b00000000000000000000000000000000 5
b00000000000000000000000000010011 8
b10111111110000000000000111001100 9
b10111111110000000000000111010000 :
b10111111110000000000000000110100 E
b10111111110000000000000111001000 F
b00000000000000000000000000001011 G
b00000000000000000000000000000001 H
b10111111110000000000000111001100 I
b10111111110000000000000000111000 R
b10111111110000000000000000111100 S
0V
0X
b00000000000000000000000000000000 Y
b10111111110000000000000000111000 Z
b10111111110000000000000000110100 ]
b10111111110000000000000111001000 ^
b10111111110000000000000111001001 _
b00000 b
b01011 c
b00000 d
b0000000000000000 j
b10111111110000000000000111010000 m
b10111111110000000000000111010100 n
b000111010000 o
1p
b00000000000000000000000000000000 u
b10111111110000000000000111010100 v
#37
0p
#38
1.
b00000000000000000000000000000000 2
b00000000000000000000000000000000 3
b10111111110000000000000111010000 9
b10111111110000000000000111010100 :
b00000000000000000000000000000000 E
b10111111110000000000000111001100 F
b00000000000000000000000000000000 G
b00000000000000000000000000000000 H
b10111111110000000000000111010000 I
b00000000000000000000000000000001 O
b10111111110000000000000000110100 P
b00000000000000000000000000001011 Q
b10111111110000000000000111001001 R
b10111111110000000000000111001100 S
b10111111110000000000000000111100 Z
b10111111110000000000000000111000 ]
b10111111110000000000000111001100 ^
b10111111110000000000000111001100 _
b01011 a
b00000 c
b10111111110000000000000111010100 m
b10111111110000000000000111011000 n
b000111010100 o
1p
b10111111110000000000000111011000 v
#39
0p
#40
b00000000000000000000000000000001 5
b00000000000000000000000000000001 7
b10111111110000000000000111010100 9
b10111111110000000000000111011000 :
b10111111110000000000000111010000 F
b10111111110000000000000111010100 I
b00000000000000000000000000000000 O
b00000000000000000000000000000000 P
b00000000000000000000000000000000 Q
b10111111110000000000000111001100 R
b10111111110000000000000111010000 S
b00000000000000000000000000001011 Y
b10111111110000000000000111001100 Z
b00000000000000000000000000000001 \
b10111111110000000000000111001001 ]
b10111111110000000000000111010000 ^
b10111111110000000000000111010000 _
b00000 a
b01011 b
b0000000000001011 j
b10111111110000000000000111011000 m
b10111111110000000000000111011100 n
b000111011000 o
1p
b10111111110000000000000111011100 v
#41
0p
#42
b00000000000000000000000000000000 5
b00000000000000000000000000000000 7
b10111111110000000000000111011000 9
b10111111110000000000000111011100 :
b10111111110000000000000111010100 F
b10111111110000000000000111011000 I
b10111111110000000000000111010000 R
b10111111110000000000000111010100 S
b00000000000000000000000000000000 Y
b10111111110000000000000111010000 Z
b00000000000000000000000000000000 \
b10111111110000000000000111001100 ]
b10111111110000000000000111010100 ^
b10111111110000000000000111010100 _
b00000 b
b0000000000000000 j
b10111111110000000000000111011100 m
b10111111110000000000000111100000 n
b000111011100 o
1p
b10111111110000000000000111100000 v
#43
0p
#44
b10111111110000000000000111011100 9
b10111111110000000000000111100000 :
b10111111110000000000000111011000 F
b10111111110000000000000111011100 I
b10111111110000000000000111010100 R
b10111111110000000000000111011000 S
b10111111110000000000000111010100 Z
b10111111110000000000000111010000 ]
b10111111110000000000000111011000 ^
b10111111110000000000000111011000 _
b11111110011001011001010011100011 l
b10111111110000000000000111100000 m
b10111111110000000000000111100100 n
b000111100000 o
1p
b10111111110000000000000111100100 v
#45
0p
#46
b0000000000001011 #
b0000000000000110 $
b0000000000001001 %
0&
b001 '
0(
b010 )
11
b11111111111111111111111111101000 4
b11111110011001011001010011100011 8
b10111111110000000000000111100000 9
b10111111110000000000000111100100 :
b10111111110000000000000111011100 F
b10111111110000000000000111100000 I
b10111111110000000000000111011000 R
b10111111110000000000000111011100 S
b10111111110000000000000111011000 Z
b10111111110000000000000111010100 ]
b10111111110000000000000111011100 ^
b10111111110000000000000111011100 _
b01001 d
b1100011 e
b001 f
b1111111 g
b01 h
b11 i
b00000000000000000000000000010011 l
b10111111110000000000000111100100 m
b10111111110000000000000111101000 n
b000111100100 o
1p
b00000000000000000000000000000001 t
b00000000000000000000000000000010 u
b10111111110000000000000111101000 v
#47
0p
#48
b0000000000000000 #
b0000000000000000 $
b0000000000000000 %
1&
b000 '
1(
b000 )
1*
0.
01
b00000000000000000000000000000010 2
b11111111111111111111111111111111 3
b00000000000000000000000000000000 4
b00000000000000000000000000010011 8
b10111111110000000000000111100100 9
b10111111110000000000000111101000 :
0;
1?
b001 A
0B
b00000000000000000000000000000001 D
b00000000000000000000000000000010 E
b10111111110000000000000111100000 F
b00000000000000000000000000001001 G
b11111111111111111111111111101000 H
b10111111110000000000000111100100 I
b10111111110000000000000111011100 R
b10111111110000000000000111100000 S
b10111111110000000000000111011100 Z
b10111111110000000000000111011000 ]
b10111111110000000000000111100000 ^
b10111111110000000000000111001000 _
b01001 c
b00000 d
b0010011 e
b000 f
b0000000 g
b10 h
b00 i
b10111111110000000000000111101000 m
b10111111110000000000000111101100 n
b000111101000 o
1p
b00000000000000000000000000000000 t
b00000000000000000000000000000000 u
b10111111110000000000000111001000 v
#49
0p
#50
0*
1.
b00000000000000000000000000000000 2
b00000000000000000000000000000000 3
b10111111110000000000000111101000 9
b10111111110000000000000111101100 :
1;
0?
b000 A
1B
b00000000000000000000000000000000 D
b00000000000000000000000000000000 E
b10111111110000000000000111100100 F
b00000000000000000000000000000000 G
b00000000000000000000000000000000 H
b10111111110000000000000111101000 I
0J
b11111111111111111111111111111111 O
b00000000000000000000000000000010 P
b00000000000000000000000000001001 Q
b10111111110000000000000111001000 R
b10111111110000000000000111100100 S
b10111111110000000000000111100000 Z
b10111111110000000000000111011100 ]
b10111111110000000000000111100100 ^
b10111111110000000000000111100100 _
b01001 a
b00000 c
b00000000000101011000010110010011 l
b10111111110000000000000111001000 m
b10111111110000000000000111001100 n
b000111001000 o
1p
b10111111110000000000000111001100 v
#51
0p
#52
b0000000000001011 #
b0000000000000001 $
b0000000000001011 %
b00000000000000000000000000000001 4
b11111111111111111111111111111111 5
b11111111111111111111111111111111 7
b00000000000101011000010110010011 8
b10111111110000000000000111001000 9
b10111111110000000000000111001100 :
b10111111110000000000000111101000 F
b10111111110000000000000111101100 I
1J
b00000000000000000000000000000000 O
b00000000000000000000000000000000 P
b00000000000000000000000000000000 Q
b10111111110000000000000111100100 R
b10111111110000000000000111101000 S
0T
b00000000000000000000000000001001 Y
b10111111110000000000000111100100 Z
b11111111111111111111111111111111 \
b10111111110000000000000111001000 ]
b10111111110000000000000111101000 ^
b10111111110000000000000111101000 _
b00000 a
b01001 b
b01011 d
b0000000000001001 j
b00000000000000000000000000010011 l
b10111111110000000000000111001100 m
b10111111110000000000000111010000 n
b000111001100 o
1p
b00000000000000000000000000000001 t
b10111111110000000000000000110100 u
b10111111110000000000000111010000 v
#53
0p
#54
b0000000000000000 #
b0000000000000000 $
b0000000000000000 %
0.
b00000000000000000000000000000001 2
b00000000000000000000000000000010 3
b00000000000000000000000000000000 4
b00000000000000000000000000000000 5
b00000000000000000000000000000000 7
b00000000000000000000000000010011 8
b10111111110000000000000111001100 9
b10111111110000000000000111010000 :
b00000000000000000000000000000001 D
b10111111110000000000000000110100 E
b10111111110000000000000111001000 F
b00000000000000000000000000001011 G
b00000000000000000000000000000001 H
b10111111110000000000000111001100 I
b10111111110000000000000111101000 R
b10111111110000000000000111101100 S
1T
b00000000000000000000000000000000 Y
b10111111110000000000000111101000 Z
b00000000000000000000000000000000 \
b10111111110000000000000111100100 ]
b10111111110000000000000111001000 ^
b10111111110000000000000111001001 _
b00000 b
b01011 c
b00000 d
b0000000000000000 j
b10111111110000000000000111010000 m
b10111111110000000000000111010100 n
b000111010000 o
1p
b00000000000000000000000000000000 t
b00000000000000000000000000000000 u
b10111111110000000000000111010100 v
#55
0p
